<svg width="20" height="20" viewBox="0 0 20 20" fill="none" xmlns="http://www.w3.org/2000/svg">
<path fill-rule="evenodd" clip-rule="evenodd" d="M8.84679 19.9342C3.86713 19.3624 0 15.1328 0 10C0 4.47715 4.47715 0 10 0C15.5228 0 20 4.47715 20 10C20 15.1565 16.7173 14.7325 13.9135 14.3703C12.2964 14.1614 10.8386 13.9731 10.2619 14.888C9.86745 15.5136 10.2938 16.2938 10.8168 16.8168C11.4703 17.4703 11.4703 18.5297 10.8168 19.1832C10.2938 19.7062 9.58159 20.0186 8.84679 19.9342ZM9.085 4.99976C9.085 5.82818 8.41343 6.49976 7.585 6.49976C6.75658 6.49976 6.085 5.82818 6.085 4.99976C6.085 4.17133 6.75658 3.49976 7.585 3.49976C8.41343 3.49976 9.085 4.17133 9.085 4.99976ZM4.5 11C5.32843 11 6 10.3284 6 9.49998C6 8.67156 5.32843 7.99998 4.5 7.99998C3.67157 7.99998 3 8.67156 3 9.49998C3 10.3284 3.67157 11 4.5 11ZM15.5 11C16.3284 11 17 10.3284 17 9.49998C17 8.67156 16.3284 7.99998 15.5 7.99998C14.6716 7.99998 14 8.67156 14 9.49998C14 10.3284 14.6716 11 15.5 11ZM12.5 6.49998C13.3284 6.49998 14 5.82841 14 4.99998C14 4.17156 13.3284 3.49998 12.5 3.49998C11.6716 3.49998 11 4.17156 11 4.99998C11 5.82841 11.6716 6.49998 12.5 6.49998Z" fill="#999999"/>
</svg>
